{
	"fields" : [
		{"name": "title", "type":"string","nullable": true, "default" : "", "required" : true, "length":"255","form":true,"index":true },
		{"name": "nickname", "type":"char","nullable": true, "default" : "", "required" : true, "length":"55" ,"form":true, "index" : true},
		{"name": "description", "type":"text","nullable": true, "required" : true,"form":true,  "index" : true},
		{"name": "votes", "type":"integer","nullable": true, "default" : "0", "required": true,"form":true,  "index" : true},
		{"name": "date", "type":"date","nullable": true,"form":true,  "index" : true},
		{"name": "enabled", "type":"boolean","nullable": true,"default":true,"form":true, "index" : false},
		{"name": "amount", "type":"decimal","nullable": true, "default" : "0.0", "required": true , "digits":"8", "decimals" : "2","form":true,  "index" : true},
		{"name": "items", "type":"enum","nullable": true, "default" : "sword", "required": true, "list" : ["sword", "spear", "katana"],"form":true , "index" : false},
		{"name": "image_id", "type":"unsignedInteger","nullable": true,"form":true},
		{"name": "image2_id", "type" : "unsignedInteger","nullable": true ,"form" : true}
	],

	"relations" : [
		{"name":"images","field":"image_id" ,"type":"belongsTo","fkClass":"Image","fkField":"id", "displayField":"file"},
		{"name":"images2","field":"image2_id" ,"type":"belongsTo","fkClass":"Image","fkField":"id","displayField":"file"},
		{"name":"imageList","field":"id","type":"hasMany","fkClass":"Image","fkField":"post_id"}
	],

	"options" : {
		"id": true,
		"timestamps" : true

	}

}
